lab2_proc/waves/ProcDpathAlu.utb_ProcDpathAlu.v.waves.vcd
$version Generated by VerilatedVcd $end
$timescale 1ps $end

 $scope module top $end
  $var wire  1 # clk $end
  $var wire  1 $ linetrace $end
  $scope module top $end
   $var wire  1 # clk $end
   $var wire  4 ' fn [3:0] $end
   $var wire 32 % in0 [31:0] $end
   $var wire 32 & in1 [31:0] $end
   $var wire  1 $ linetrace $end
   $var wire  1 ) ops_eq $end
   $var wire  1 * ops_lt $end
   $var wire  1 + ops_ltu $end
   $var wire 32 ( out [31:0] $end
   $scope module DUT $end
    $var wire  4 ' fn [3:0] $end
    $var wire 32 % in0 [31:0] $end
    $var wire 32 & in1 [31:0] $end
    $var wire  1 ) ops_eq $end
    $var wire  1 * ops_lt $end
    $var wire  1 + ops_ltu $end
    $var wire 32 ( out [31:0] $end
    $scope module cond_eq_comp $end
     $var wire 32 % in0 [31:0] $end
     $var wire 32 & in1 [31:0] $end
     $var wire  1 ) out $end
     $var wire 32 , p_nbits [31:0] $end
    $upscope $end
   $upscope $end
  $upscope $end
 $upscope $end
$enddefinitions $end


#1
1#
0$
b00000000000000000000000000000000 %
b00000000000000000000000000000000 &
b0000 '
b00000000000000000000000000000000 (
1)
0*
0+
b00000000000000000000000000100000 ,
#2
0#
b00000000000000000000000000000101 %
b00000000000000000000000000000011 &
b00000000000000000000000000001000 (
0)
#3
1#
b00000000000000000000000000000000 %
b00000000000000000000000000000001 &
b00000000000000000000000000000001 (
1*
1+
#4
0#
b11111111111111111111111111111111 %
b00000000000000000000000000000000 &
b11111111111111111111111111111111 (
0+
#5
1#
b11111111111111111111111111111111 &
b11111111111111111111111111111110 (
1)
0*
#6
0#
b00000000000000000000000011010100 %
b11011110101011011011111011101111 &
b11011110101011011011111111000011 (
0)
1+
#7
1#
b00000000001011101000000110001101 %
b00110111010101011101111000011010 &
b00110111100001000101111110100111 (
1*
#8
0#
b00000000000000000000000000000101 %
b11111111111111111111111111111000 &
b0001 '
b00000000000000000000000000001101 (
0*
#9
1#
b00000000000000000000000000001010 %
b00000000000000000000000000000000 &
b00000000000000000000000000001010 (
0+
#10
0#
b00000000000000000000000000000101 %
b11111111111111111111111111111000 &
b00000000000000000000000000001101 (
1+
#11
1#
b00000000000000000000000000001010 %
b00000000000000000000000000000000 &
b00000000000000000000000000001010 (
0+
#12
0#
b11111111111111001101001011111110 %
b00000000000000000000101010110000 &
b11111111111111001100100001001110 (
1*
#13
1#
b11011110101011011011111011101111 %
b11111110111010111101101011101101 &
b11011111110000011110010000000010 (
1+
#14
0#
b00000000000000000000000000001111 %
b11111111111111111111111111111000 &
b0010 '
b00000000000000000000000000001000 (
0*
#15
1#
b00000000000011111111111111111111 %
b00000000000000000000000000000000 &
b00000000000000000000000000000000 (
0+
#16
0#
b11011110101011011011111011101111 %
b11001010111111111110000000000000 &
b11001010101011011010000000000000 (
#17
1#
b00000000000000110011011111111010 %
b11111111111111101011100000010101 &
b00000000000000100011000000010000 (
1+
#18
0#
b11111001011000001001010000111001 %
b00000101111101011110000011111111 &
b00000001011000001000000000111001 (
1*
0+
#19
1#
b00000011001101001111100111101010 %
b00000000000000000100010101010101 &
b00000000000000000100000101000000 (
0*
#20
0#
b00000000000000000000000000001111 %
b11111111111111111111111111111000 &
b0011 '
b11111111111111111111111111111111 (
1+
#21
1#
b00000000000011111111111111111111 %
b00000000000000000000000000000000 &
b00000000000011111111111111111111 (
0+
#22
0#
b11011110101011011011111011101111 %
b11001010111111111110000000000000 &
b11011110111111111111111011101111 (
#23
1#
b00000000000000110011011111111010 %
b11111111111111101011100000010101 &
b11111111111111111011111111111111 (
1+
#24
0#
b11111001011000001001010000111001 %
b00000101111101011110000011111111 &
b11111101111101011111010011111111 (
1*
0+
#25
1#
b00000011001101001111100111101010 %
b00000000000000000100010101010101 &
b00000011001101001111110111111111 (
0*
#26
0#
b00000000000000000000000101011101 %
b00000000000000000001010101010100 &
b0100 '
b00000000000000000001010000001001 (
1*
1+
#27
1#
b00000000000000000000000000000000 %
b00000000000111111111111111111111 &
b00000000000111111111111111111111 (
#28
0#
b00001110111011111010110111011011 %
b00000100001110011001110010101111 &
b00001010110101100011000101110100 (
0*
0+
#29
1#
b00000000000000000100001110011001 %
b11111111111111110011001101101000 &
b11111111111111110111000011110001 (
1+
#30
0#
b11111001011000001001010000111001 %
b00000101111101011110000011111111 &
b11111100100101010111010011000110 (
1*
0+
#31
1#
b00000000011100101111100111101010 %
b00000000000000011100010101010101 &
b00000000011100110011110010111111 (
0*
#32
0#
b00000000000000000000000101011101 %
b00000000000000000001010101010100 &
b0101 '
b00000000000000000000000000000001 (
1*
1+
#33
1#
b00000000000000000000000000000000 %
b00000000000000000000000000111011 &
#34
0#
b00001110111011111010110111011011 %
b00000100001110011001110010101111 &
b00000000000000000000000000000000 (
0*
0+
#35
1#
b00000000000000000100001110011001 %
b11111111111111111111100010001000 &
1+
#36
0#
b00000110100111110110101111000111 %
b00000101111101011110000011111111 &
0+
#37
1#
b00000000000000011011001000000111 %
b00000000000011110100001000111111 &
b00000000000000000000000000000001 (
1*
1+
#38
0#
b01111111111111111111111111111111 %
b11111111111111111111111111111111 &
b00000000000000000000000000000000 (
0*
#39
1#
b0110 '
b00000000000000000000000000000001 (
#40
0#
b00000000000000000000000000000000 %
b00000000000000000000000000111011 &
1*
#41
1#
b00001110111011111010110111011011 %
b00000100001110011001110010101111 &
b00000000000000000000000000000000 (
0*
0+
#42
0#
b00000000000000000100001110011001 %
b11111111111111111111100010001000 &
b00000000000000000000000000000001 (
1+
#43
1#
b00000110100111110110101111000111 %
b00000101111101011110000011111111 &
b00000000000000000000000000000000 (
0+
#44
0#
b11011110101011011011111011101111 %
b00000000000011110100001000111111 &
1*
#45
1#
b01111111111111111111111111111111 %
b01111111111111111111111111100011 &
b0111 '
b00001111111111111111111111111111 (
0*
#46
0#
b00000000000000000000000000000000 %
b00000000000000000000001110111111 &
b00000000000000000000000000000000 (
1*
1+
#47
1#
b00000000000000000000000010101010 %
b11111111111111111111111111100000 &
b00000000000000000000000010101010 (
0*
#48
0#
b00000000000000000100001110011001 %
b01111111000111111111100111101010 &
b00000000000000000000000000010000 (
1*
#49
1#
b11111111111111111111111111111111 %
b00000101111101011110000011111111 &
b11111111111111111111111111111111 (
0+
#50
0#
b10000000000000000000000010101011 %
b00000000000000000000000000010000 &
b11111111111111111000000000000000 (
#51
1#
b01111111111111111111111111111111 %
b01111111111111111111111111100011 &
b1000 '
b00001111111111111111111111111111 (
0*
#52
0#
b00000000000000000000000000000000 %
b00000000000000000000001110111111 &
b00000000000000000000000000000000 (
1*
1+
#53
1#
b10000000000000000000000001000000 %
b11111111111111111111111111100100 &
b00001000000000000000000000000100 (
#54
0#
b00000000000000000100001110011001 %
b01111111000111111111100111101010 &
b00000000000000000000000000010000 (
#55
1#
b11111111111111111111111111111111 %
b11111111111111111111111111111111 &
b00000000000000000000000000000001 (
1)
0*
0+
#56
0#
b10000000000000000000000010101011 %
b00000000000000000000000000010000 &
b00000000000000001000000000000000 (
0)
1*
#57
1#
b01111111111111111111111111111111 %
b01111111111111111111111111100011 &
b1001 '
b11111111111111111111111111111000 (
0*
#58
0#
b00000000000000000000000000000000 %
b00000000000000000000000111111111 &
b00000000000000000000000000000000 (
1*
1+
#59
1#
b10000001110000000000000001000000 %
b11111111111111111111111111100100 &
b00011100000000000000010000000000 (
#60
0#
b00000000000000000100001110011001 %
b01111111000111111111100111101010 &
b00000001000011100110010000000000 (
#61
1#
b11111111111111111111111111111111 %
b11111111111111111111111111111111 &
b10000000000000000000000000000000 (
1)
0*
0+
#62
0#
b10000000000000000000000010101011 %
b00000000000000000000000000001110 &
b00000000001010101100000000000000 (
0)
1*
#63
1#
b01100010111010111111000000110001 %
b11111111111111111111111111001010 &
b1010 '
b01100010111010111110111111111010 (
0*
1+
#64
0#
b00000000000000000000000000000000 %
b00000000000000000000000111111111 &
b00000000000000000000000111111110 (
1*
#65
1#
b10000001110000000000000001000000 %
b11111111111111111111111111100100 &
b10000001110000000000000000100100 (
#66
0#
b00000000000000000100001110011001 %
b01111111000111111111100111101010 &
b01111111001000000011110110000010 (
#67
1#
b11111111111111111111111111111111 %
b11111111111111111111111111111111 &
b11111111111111111111111111111110 (
1)
0*
0+
#68
0#
b10000000000000000000000010101011 %
b00000000000000000000000000001110 &
b10000000000000000000000010111000 (
0)
1*
#69
1#
b01100010111010111111000000110001 %
b11111111111111111111111111001010 &
b1011 '
b01100010111010111111000000110001 (
0*
1+
#70
0#
b00000000000000000000000000000000 %
b00000000000000000000000111111111 &
b00000000000000000000000000000000 (
1*
#71
1#
b10000001110000000000000001000000 %
b11111111111111111111111111100100 &
b10000001110000000000000001000000 (
#72
0#
b00000000000000000100001110011001 %
b01111111000111111111100111101010 &
b00000000000000000100001110011001 (
#73
1#
b11111111111111111111111111111111 %
b11111111111111111111111111111111 &
b11111111111111111111111111111111 (
1)
0*
0+
#74
0#
b10000000000000000000000010101011 %
b00000000000000000000000000001110 &
b10000000000000000000000010101011 (
0)
1*
#75
1#
b01100010111010111111000000110001 %
b11111111111111111111111111001010 &
b1100 '
b11111111111111111111111111001010 (
0*
1+
#76
0#
b00000000000000000000000000000000 %
b00000000000000000000000111111111 &
b00000000000000000000000111111111 (
1*
#77
1#
b10000001110000000000000001000000 %
b11111111111111111111111111100100 &
b11111111111111111111111111100100 (
#78
0#
b00000000000000000100001110011001 %
b01111111000111111111100111101010 &
b01111111000111111111100111101010 (
#79
1#
b11111111111111111111111111111111 %
b11111111111111111111111111111111 &
b11111111111111111111111111111111 (
1)
0*
0+
#80
0#
b10000000000000000000000010101011 %
b00000000000000000000000000001110 &
b00000000000000000000000000001110 (
0)
1*
