lab2_proc/waves/ProcAltDpath.utb_ProcAltDpath.v.waves.vcd
$version Generated by VerilatedVcd $end
$timescale 1ps $end

 $scope module top $end
  $var wire  1 !! clk $end
  $var wire  1 "! linetrace $end
  $scope module top $end
   $var wire  4 2 alu_fn_X [3:0] $end
   $var wire  1 G br_cond_eq_X $end
   $var wire  1 (! br_cond_lt_X $end
   $var wire  1 )! br_cond_ltu_X $end
   $var wire  1 !! clk $end
   $var wire 32 ; core_id [31:0] $end
   $var wire  2 . csrr_sel_D [1:0] $end
   $var wire 32 > dmem_reqstream_msg_addr [31:0] $end
   $var wire 32 %! dmem_reqstream_msg_data [31:0] $end
   $var wire 32 & dmem_respstream_msg_data [31:0] $end
   $var wire  1 3 ex_result_sel_X $end
   $var wire 32 = imem_reqstream_msg_addr [31:0] $end
   $var wire  1 ( imem_respstream_drop $end
   $var wire 47 $ imem_respstream_msg [46:0] $end
   $var wire  3 / imm_type_D [2:0] $end
   $var wire  1 &! imul_istream_rdy_D $end
   $var wire  1 0 imul_istream_val_D $end
   $var wire  1 4 imul_ostream_rdy_X $end
   $var wire  1 '! imul_ostream_val_X $end
   $var wire 32 F inst_D [31:0] $end
   $var wire  1 "! linetrace $end
   $var wire 32 ' mngr2proc_data [31:0] $end
   $var wire  1 , op1_sel_D $end
   $var wire  2 - op2_sel_D [1:0] $end
   $var wire  2 * pc_sel_F [1:0] $end
   $var wire 32 E proc2mngr_data [31:0] $end
   $var wire  1 + reg_en_D $end
   $var wire  1 ) reg_en_F $end
   $var wire  1 5 reg_en_M $end
   $var wire  1 7 reg_en_W $end
   $var wire  1 1 reg_en_X $end
   $var wire  1 # reset $end
   $var wire  5 8 rf_waddr_W [4:0] $end
   $var wire  1 9 rf_wen_W $end
   $var wire  1 H stats_en $end
   $var wire  1 : stats_en_wen_W $end
   $var wire  1 6 wb_result_sel_M $end
   $scope module DUT $end
    $var wire  4 2 alu_fn_X [3:0] $end
    $var wire 32 > alu_result_X [31:0] $end
    $var wire  1 G br_cond_eq_X $end
    $var wire 32 K br_target_X [31:0] $end
    $var wire 32 ,! c_reset_inst [31:0] $end
    $var wire 32 +! c_reset_vector [31:0] $end
    $var wire  1 !! clk $end
    $var wire 32 ; core_id [31:0] $end
    $var wire 32 #! csrr_data_D [31:0] $end
    $var wire  2 . csrr_sel_D [1:0] $end
    $var wire 32 > dmem_reqstream_msg_addr [31:0] $end
    $var wire 32 & dmem_respstream_msg_data [31:0] $end
    $var wire 32 & dmem_result_M [31:0] $end
    $var wire 32 V ex_result_M [31:0] $end
    $var wire 32 C ex_result_X [31:0] $end
    $var wire  1 3 ex_result_sel_X $end
    $var wire 32 = imem_reqstream_msg_addr [31:0] $end
    $var wire  1 ( imem_respstream_drop $end
    $var wire 47 $ imem_respstream_msg [46:0] $end
    $var wire 32 @ imm_D [31:0] $end
    $var wire  3 / imm_type_D [2:0] $end
    $var wire 32 F inst_D [31:0] $end
    $var wire  5 M inst_rd_D [4:0] $end
    $var wire  5 N inst_rs1_D [4:0] $end
    $var wire  5 O inst_rs2_D [4:0] $end
    $var wire 32 ? jal_target_D [31:0] $end
    $var wire 32 > jalr_target_X [31:0] $end
    $var wire 32 ' mngr2proc_data [31:0] $end
    $var wire 32 *! num_cores [31:0] $end
    $var wire 32 A op1_D [31:0] $end
    $var wire 32 T op1_X [31:0] $end
    $var wire  1 , op1_sel_D $end
    $var wire 32 B op2_D [31:0] $end
    $var wire 32 U op2_X [31:0] $end
    $var wire  2 - op2_sel_D [1:0] $end
    $var wire 32 *! p_num_cores [31:0] $end
    $var wire 32 L pc_D [31:0] $end
    $var wire 32 I pc_F [31:0] $end
    $var wire 32 R pc_X [31:0] $end
    $var wire 32 = pc_next_F [31:0] $end
    $var wire 32 J pc_plus4_F [31:0] $end
    $var wire 32 S pc_plus4_X [31:0] $end
    $var wire  2 * pc_sel_F [1:0] $end
    $var wire 32 E proc2mngr_data [31:0] $end
    $var wire  1 + reg_en_D $end
    $var wire  1 ) reg_en_F $end
    $var wire  1 5 reg_en_M $end
    $var wire  1 7 reg_en_W $end
    $var wire  1 1 reg_en_X $end
    $var wire  1 # reset $end
    $var wire 32 P rf_rdata0_D [31:0] $end
    $var wire 32 Q rf_rdata1_D [31:0] $end
    $var wire  5 8 rf_waddr_W [4:0] $end
    $var wire 32 E rf_wdata_W [31:0] $end
    $var wire  1 9 rf_wen_W $end
    $var wire  1 H stats_en $end
    $var wire 32 W stats_en_W [31:0] $end
    $var wire  1 : stats_en_wen_W $end
    $var wire 32 D wb_result_M [31:0] $end
    $var wire 32 E wb_result_W [31:0] $end
    $var wire  1 6 wb_result_sel_M $end
    $scope module alu $end
     $var wire  4 2 fn [3:0] $end
     $var wire 32 T in0 [31:0] $end
     $var wire 32 U in1 [31:0] $end
     $var wire  1 G ops_eq $end
     $var wire  1 X ops_lt $end
     $var wire  1 Y ops_ltu $end
     $var wire 32 > out [31:0] $end
     $scope module cond_eq_comp $end
      $var wire 32 T in0 [31:0] $end
      $var wire 32 U in1 [31:0] $end
      $var wire  1 G out $end
      $var wire 32 -! p_nbits [31:0] $end
     $upscope $end
    $upscope $end
    $scope module br_target_reg_X $end
     $var wire  1 !! clk $end
     $var wire 32 ? d [31:0] $end
     $var wire  1 1 en $end
     $var wire 32 -! p_nbits [31:0] $end
     $var wire 32 ,! p_reset_value [31:0] $end
     $var wire 32 K q [31:0] $end
     $var wire  1 # reset $end
    $upscope $end
    $scope module csrr_sel_mux_D $end
     $var wire 32 ' in0 [31:0] $end
     $var wire 32 *! in1 [31:0] $end
     $var wire 32 ; in2 [31:0] $end
     $var wire 32 #! out [31:0] $end
     $var wire 32 -! p_nbits [31:0] $end
     $var wire  2 . sel [1:0] $end
    $upscope $end
    $scope module ex_result_reg_M $end
     $var wire  1 !! clk $end
     $var wire 32 C d [31:0] $end
     $var wire  1 5 en $end
     $var wire 32 -! p_nbits [31:0] $end
     $var wire 32 ,! p_reset_value [31:0] $end
     $var wire 32 V q [31:0] $end
     $var wire  1 # reset $end
    $upscope $end
    $scope module ex_result_sel_mux_X $end
     $var wire 32 S in0 [31:0] $end
     $var wire 32 > in1 [31:0] $end
     $var wire 32 C out [31:0] $end
     $var wire 32 -! p_nbits [31:0] $end
     $var wire  1 3 sel $end
    $upscope $end
    $scope module imm_gen_D $end
     $var wire 32 @ imm [31:0] $end
     $var wire  3 / imm_type [2:0] $end
     $var wire 32 F inst [31:0] $end
    $upscope $end
    $scope module inst_D_reg $end
     $var wire  1 !! clk $end
     $var wire 32 < d [31:0] $end
     $var wire  1 + en $end
     $var wire 32 -! p_nbits [31:0] $end
     $var wire 32 ,! p_reset_value [31:0] $end
     $var wire 32 F q [31:0] $end
     $var wire  1 # reset $end
    $upscope $end
    $scope module inst_unpack $end
     $var wire 12 \ csr [11:0] $end
     $var wire  3 [ funct3 [2:0] $end
     $var wire  7 .! funct7 [6:0] $end
     $var wire 32 F inst [31:0] $end
     $var wire  7 Z opcode [6:0] $end
     $var wire  5 M rd [4:0] $end
     $var wire  5 N rs1 [4:0] $end
     $var wire  5 O rs2 [4:0] $end
    $upscope $end
    $scope module op1_reg_X $end
     $var wire  1 !! clk $end
     $var wire 32 A d [31:0] $end
     $var wire  1 1 en $end
     $var wire 32 -! p_nbits [31:0] $end
     $var wire 32 ,! p_reset_value [31:0] $end
     $var wire 32 T q [31:0] $end
     $var wire  1 # reset $end
    $upscope $end
    $scope module op1_sel_mux_D $end
     $var wire 32 L in0 [31:0] $end
     $var wire 32 P in1 [31:0] $end
     $var wire 32 A out [31:0] $end
     $var wire 32 -! p_nbits [31:0] $end
     $var wire  1 , sel $end
    $upscope $end
    $scope module op2_reg_X $end
     $var wire  1 !! clk $end
     $var wire 32 B d [31:0] $end
     $var wire  1 1 en $end
     $var wire 32 -! p_nbits [31:0] $end
     $var wire 32 ,! p_reset_value [31:0] $end
     $var wire 32 U q [31:0] $end
     $var wire  1 # reset $end
    $upscope $end
    $scope module op2_sel_mux_D $end
     $var wire 32 Q in0 [31:0] $end
     $var wire 32 @ in1 [31:0] $end
     $var wire 32 #! in2 [31:0] $end
     $var wire 32 B out [31:0] $end
     $var wire 32 -! p_nbits [31:0] $end
     $var wire  2 - sel [1:0] $end
    $upscope $end
    $scope module pc_incr_F $end
     $var wire 32 I in [31:0] $end
     $var wire 32 J out [31:0] $end
     $var wire 32 /! p_inc_value [31:0] $end
     $var wire 32 -! p_nbits [31:0] $end
    $upscope $end
    $scope module pc_incr_X $end
     $var wire 32 R in [31:0] $end
     $var wire 32 S out [31:0] $end
     $var wire 32 /! p_inc_value [31:0] $end
     $var wire 32 -! p_nbits [31:0] $end
    $upscope $end
    $scope module pc_plus_imm_D $end
     $var wire  1 0! cin $end
     $var wire  1 $! cout $end
     $var wire 32 L in0 [31:0] $end
     $var wire 32 @ in1 [31:0] $end
     $var wire 32 ? out [31:0] $end
     $var wire 32 -! p_nbits [31:0] $end
    $upscope $end
    $scope module pc_reg_D $end
     $var wire  1 !! clk $end
     $var wire 32 I d [31:0] $end
     $var wire  1 + en $end
     $var wire 32 -! p_nbits [31:0] $end
     $var wire 32 ,! p_reset_value [31:0] $end
     $var wire 32 L q [31:0] $end
     $var wire  1 # reset $end
    $upscope $end
    $scope module pc_reg_F $end
     $var wire  1 !! clk $end
     $var wire 32 = d [31:0] $end
     $var wire  1 ) en $end
     $var wire 32 -! p_nbits [31:0] $end
     $var wire 32 1! p_reset_value [31:0] $end
     $var wire 32 I q [31:0] $end
     $var wire  1 # reset $end
    $upscope $end
    $scope module pc_reg_X $end
     $var wire  1 !! clk $end
     $var wire 32 L d [31:0] $end
     $var wire  1 1 en $end
     $var wire 32 -! p_nbits [31:0] $end
     $var wire 32 ,! p_reset_value [31:0] $end
     $var wire 32 R q [31:0] $end
     $var wire  1 # reset $end
    $upscope $end
    $scope module pc_sel_mux_F $end
     $var wire 32 J in0 [31:0] $end
     $var wire 32 K in1 [31:0] $end
     $var wire 32 ? in2 [31:0] $end
     $var wire 32 > in3 [31:0] $end
     $var wire 32 = out [31:0] $end
     $var wire 32 -! p_nbits [31:0] $end
     $var wire  2 * sel [1:0] $end
    $upscope $end
    $scope module rf $end
     $var wire  1 !! clk $end
     $var wire  5 N rd_addr0 [4:0] $end
     $var wire  5 O rd_addr1 [4:0] $end
     $var wire 32 P rd_data0 [31:0] $end
     $var wire 32 Q rd_data1 [31:0] $end
     $var wire  1 # reset $end
     $var wire 32 ] rf_read_data0 [31:0] $end
     $var wire 32 ^ rf_read_data1 [31:0] $end
     $var wire  5 8 wr_addr [4:0] $end
     $var wire 32 E wr_data [31:0] $end
     $var wire  1 9 wr_en $end
     $scope module rfile $end
      $var wire 32 2! c_addr_nbits [31:0] $end
      $var wire  1 !! clk $end
      $var wire 32 -! p_data_nbits [31:0] $end
      $var wire 32 -! p_num_entries [31:0] $end
      $var wire  5 N read_addr0 [4:0] $end
      $var wire  5 O read_addr1 [4:0] $end
      $var wire 32 ] read_data0 [31:0] $end
      $var wire 32 ^ read_data1 [31:0] $end
      $var wire  1 # reset $end
      $var wire 32 _ rfile[0] [31:0] $end
      $var wire 32 i rfile[10] [31:0] $end
      $var wire 32 j rfile[11] [31:0] $end
      $var wire 32 k rfile[12] [31:0] $end
      $var wire 32 l rfile[13] [31:0] $end
      $var wire 32 m rfile[14] [31:0] $end
      $var wire 32 n rfile[15] [31:0] $end
      $var wire 32 o rfile[16] [31:0] $end
      $var wire 32 p rfile[17] [31:0] $end
      $var wire 32 q rfile[18] [31:0] $end
      $var wire 32 r rfile[19] [31:0] $end
      $var wire 32 ` rfile[1] [31:0] $end
      $var wire 32 s rfile[20] [31:0] $end
      $var wire 32 t rfile[21] [31:0] $end
      $var wire 32 u rfile[22] [31:0] $end
      $var wire 32 v rfile[23] [31:0] $end
      $var wire 32 w rfile[24] [31:0] $end
      $var wire 32 x rfile[25] [31:0] $end
      $var wire 32 y rfile[26] [31:0] $end
      $var wire 32 z rfile[27] [31:0] $end
      $var wire 32 { rfile[28] [31:0] $end
      $var wire 32 | rfile[29] [31:0] $end
      $var wire 32 a rfile[2] [31:0] $end
      $var wire 32 } rfile[30] [31:0] $end
      $var wire 32 ~ rfile[31] [31:0] $end
      $var wire 32 b rfile[3] [31:0] $end
      $var wire 32 c rfile[4] [31:0] $end
      $var wire 32 d rfile[5] [31:0] $end
      $var wire 32 e rfile[6] [31:0] $end
      $var wire 32 f rfile[7] [31:0] $end
      $var wire 32 g rfile[8] [31:0] $end
      $var wire 32 h rfile[9] [31:0] $end
      $var wire  5 8 write_addr [4:0] $end
      $var wire 32 E write_data [31:0] $end
      $var wire  1 9 write_en $end
     $upscope $end
    $upscope $end
    $scope module stats_en_reg_W $end
     $var wire  1 !! clk $end
     $var wire 32 E d [31:0] $end
     $var wire  1 : en $end
     $var wire 32 -! p_nbits [31:0] $end
     $var wire 32 ,! p_reset_value [31:0] $end
     $var wire 32 W q [31:0] $end
     $var wire  1 # reset $end
    $upscope $end
    $scope module wb_result_reg_W $end
     $var wire  1 !! clk $end
     $var wire 32 D d [31:0] $end
     $var wire  1 7 en $end
     $var wire 32 -! p_nbits [31:0] $end
     $var wire 32 ,! p_reset_value [31:0] $end
     $var wire 32 E q [31:0] $end
     $var wire  1 # reset $end
    $upscope $end
    $scope module wb_result_sel_mux_M $end
     $var wire 32 V in0 [31:0] $end
     $var wire 32 & in1 [31:0] $end
     $var wire 32 D out [31:0] $end
     $var wire 32 -! p_nbits [31:0] $end
     $var wire  1 6 sel $end
    $upscope $end
   $upscope $end
  $upscope $end
 $upscope $end
$enddefinitions $end


#1
1#
b00000000000000011011110101011011011111011101111 $
b00000000000000000000000000000000 &
b00000000000000000000000000000000 '
0(
1)
b00 *
1+
0,
b00 -
b00 .
b000 /
00
11
b0000 2
03
04
15
06
17
b00000 8
09
0:
b00000000000000000000000000000000 ;
b11011110101011011011111011101111 <
b00000000000000000000000000000100 =
b00000000000000000000000000000000 >
b00000000000000000000000000000000 ?
b00000000000000000000000000000000 @
b00000000000000000000000000000000 A
b00000000000000000000000000000000 B
b00000000000000000000000000000100 C
b00000000000000000000000000000000 D
b00000000000000000000000000000000 E
b00000000000000000000000000000000 F
1G
0H
b00000000000000000000000000000000 I
b00000000000000000000000000000100 J
b00000000000000000000000000000000 K
b00000000000000000000000000000000 L
b00000 M
b00000 N
b00000 O
b00000000000000000000000000000000 P
b00000000000000000000000000000000 Q
b00000000000000000000000000000000 R
b00000000000000000000000000000100 S
b00000000000000000000000000000000 T
b00000000000000000000000000000000 U
b00000000000000000000000000000000 V
b00000000000000000000000000000000 W
0X
0Y
b0000000 Z
b000 [
b000000000000 \
b00000000000000000000000000000000 ]
b00000000000000000000000000000000 ^
b00000000000000000000000000000000 _
b00000000000000000000000000000000 `
b00000000000000000000000000000000 a
b00000000000000000000000000000000 b
b00000000000000000000000000000000 c
b00000000000000000000000000000000 d
b00000000000000000000000000000000 e
b00000000000000000000000000000000 f
b00000000000000000000000000000000 g
b00000000000000000000000000000000 h
b00000000000000000000000000000000 i
b00000000000000000000000000000000 j
b00000000000000000000000000000000 k
b00000000000000000000000000000000 l
b00000000000000000000000000000000 m
b00000000000000000000000000000000 n
b00000000000000000000000000000000 o
b00000000000000000000000000000000 p
b00000000000000000000000000000000 q
b00000000000000000000000000000000 r
b00000000000000000000000000000000 s
b00000000000000000000000000000000 t
b00000000000000000000000000000000 u
b00000000000000000000000000000000 v
b00000000000000000000000000000000 w
b00000000000000000000000000000000 x
b00000000000000000000000000000000 y
b00000000000000000000000000000000 z
b00000000000000000000000000000000 {
b00000000000000000000000000000000 |
b00000000000000000000000000000000 }
b00000000000000000000000000000000 ~
1!!
0"!
b00000000000000000000000000000000 #!
0$!
b00000000000000000000000000000000 %!
0&!
0'!
0(!
0)!
b00000000000000000000000000000001 *!
b00000000000000000000001000000000 +!
b00000000000000000000000000000000 ,!
b00000000000000000000000000100000 -!
b0000000 .!
b00000000000000000000000000000100 /!
00!
b00000000000000000000000111111100 1!
b00000000000000000000000000000101 2!
#2
0!!
#3
b00000000000000000000001000000000 =
b00000000000000000000000111111100 I
b00000000000000000000001000000000 J
1!!
#4
0!!
#5
1!!
#6
0!!
#7
1!!
#8
0!!
#9
1!!
#10
0!!
#11
1!!
#12
0#
0!!
#13
b00000000000000000000001000000100 =
b11111111111111111111111111100110 ?
b11111111111111111111110111101010 @
b00000000000000000000000111111100 A
b00000000000000000000000000000100 D
b11011110101011011011111011101111 F
b00000000000000000000001000000000 I
b00000000000000000000001000000100 J
b00000000000000000000000111111100 L
b11101 M
b11011 N
b01010 O
b00000000000000000000000000000100 V
b1101111 Z
b011 [
b110111101010 \
1!!
#14
0!!
#15
b00000000000000000000001000001000 =
b00000000000000000000000111111100 >
b11111111111111111111111111101010 ?
b00000000000000000000001000000000 A
b00000000000000000000001000000000 C
b00000000000000000000000000000100 E
0G
b00000000000000000000001000000100 I
b00000000000000000000001000001000 J
b11111111111111111111111111100110 K
b00000000000000000000001000000000 L
b00000000000000000000000111111100 R
b00000000000000000000001000000000 S
b00000000000000000000000111111100 T
1!!
#16
0!!
#17
b00000000000000000000001000001100 =
b00000000000000000000001000000000 >
b11111111111111111111111111101110 ?
b00000000000000000000001000000100 A
b00000000000000000000001000000100 C
b00000000000000000000001000000000 D
b00000000000000000000001000001000 I
b00000000000000000000001000001100 J
b11111111111111111111111111101010 K
b00000000000000000000001000000100 L
b00000000000000000000001000000000 R
b00000000000000000000001000000100 S
b00000000000000000000001000000000 T
b00000000000000000000001000000000 V
1!!
#18
b10 *
b100 /
b11111111111111011011011111101110 =
b11111111111111011011011111101110 ?
b11111111111111011011010111101010 @
0!!
#19
b11111111111111011011011111110010 =
b00000000000000000000001000000100 >
b11111111111111011011011111110010 ?
b00000000000000000000001000001000 A
b00000000000000000000001000001000 C
b00000000000000000000001000000100 D
b00000000000000000000001000000000 E
b11111111111111011011011111101110 I
b11111111111111011011011111110010 J
b11111111111111011011011111101110 K
b00000000000000000000001000001000 L
b00000000000000000000001000000100 R
b00000000000000000000001000001000 S
b00000000000000000000001000000100 T
b00000000000000000000001000000100 V
1!!
#20
0!!
#21
b11111111111110110110110111011000 =
b00000000000000000000001000001000 >
b11111111111110110110110111011000 ?
b11111111111111011011011111101110 A
b00000000000000000000001000001100 C
b00000000000000000000001000001000 D
b00000000000000000000001000000100 E
b11111111111111011011011111110010 I
b11111111111111011011011111110110 J
b11111111111111011011011111110010 K
b11111111111111011011011111101110 L
b00000000000000000000001000001000 R
b00000000000000000000001000001100 S
b00000000000000000000001000001000 T
b00000000000000000000001000001000 V
1!!
1$!
#22
0!!
#23
b11111111111110110110110111011100 =
b11111111111111011011011111101110 >
b11111111111110110110110111011100 ?
b11111111111111011011011111110010 A
b11111111111111011011011111110010 C
b00000000000000000000001000001100 D
b00000000000000000000001000001000 E
b11111111111110110110110111011000 I
b11111111111110110110110111011100 J
b11111111111110110110110111011000 K
b11111111111111011011011111110010 L
b11111111111111011011011111101110 R
b11111111111111011011011111110010 S
b11111111111111011011011111101110 T
b00000000000000000000001000001100 V
1X
1!!
#24
0!!
#25
b11111111111110010010001111000010 =
b11111111111111011011011111110010 >
b11111111111110010010001111000010 ?
b11111111111110110110110111011000 A
b11111111111111011011011111110110 C
b11111111111111011011011111110010 D
b00000000000000000000001000001100 E
b11111111111110110110110111011100 I
b11111111111110110110110111100000 J
b11111111111110110110110111011100 K
b11111111111110110110110111011000 L
b11111111111111011011011111110010 R
b11111111111111011011011111110110 S
b11111111111111011011011111110010 T
b11111111111111011011011111110010 V
1!!
#26
0!!
#27
b11111111111110010010001111000110 =
b11111111111110110110110111011000 >
b11111111111110010010001111000110 ?
b11111111111110110110110111011100 A
b11111111111110110110110111011100 C
b11111111111111011011011111110110 D
b11111111111111011011011111110010 E
b11111111111110010010001111000010 I
b11111111111110010010001111000110 J
b11111111111110010010001111000010 K
b11111111111110110110110111011100 L
b11111111111110110110110111011000 R
b11111111111110110110110111011100 S
b11111111111110110110110111011000 T
b11111111111111011011011111110110 V
1!!
#28
0!!
#29
b11111111111101101101100110101100 =
b11111111111110110110110111011100 >
b11111111111101101101100110101100 ?
b11111111111110010010001111000010 A
b11111111111110110110110111100000 C
b11111111111110110110110111011100 D
b11111111111111011011011111110110 E
b11111111111110010010001111000110 I
b11111111111110010010001111001010 J
b11111111111110010010001111000110 K
b11111111111110010010001111000010 L
b11111111111110110110110111011100 R
b11111111111110110110110111100000 S
b11111111111110110110110111011100 T
b11111111111110110110110111011100 V
1!!
#30
0!!
#31
b11111111111101101101100110110000 =
b11111111111110010010001111000010 >
b11111111111101101101100110110000 ?
b11111111111110010010001111000110 A
b11111111111110010010001111000110 C
b11111111111110110110110111100000 D
b11111111111110110110110111011100 E
b11111111111101101101100110101100 I
b11111111111101101101100110110000 J
b11111111111101101101100110101100 K
b11111111111110010010001111000110 L
b11111111111110010010001111000010 R
b11111111111110010010001111000110 S
b11111111111110010010001111000010 T
b11111111111110110110110111100000 V
1!!
#32
0!!
#33
b11111111111101001000111110010110 =
b11111111111110010010001111000110 >
b11111111111101001000111110010110 ?
b11111111111101101101100110101100 A
b11111111111110010010001111001010 C
b11111111111110010010001111000110 D
b11111111111110110110110111100000 E
b11111111111101101101100110110000 I
b11111111111101101101100110110100 J
b11111111111101101101100110110000 K
b11111111111101101101100110101100 L
b11111111111110010010001111000110 R
b11111111111110010010001111001010 S
b11111111111110010010001111000110 T
b11111111111110010010001111000110 V
1!!
#34
0!!
#35
b11111111111101001000111110011010 =
b11111111111101101101100110101100 >
b11111111111101001000111110011010 ?
b11111111111101101101100110110000 A
b11111111111101101101100110110000 C
b11111111111110010010001111001010 D
b11111111111110010010001111000110 E
b11111111111101001000111110010110 I
b11111111111101001000111110011010 J
b11111111111101001000111110010110 K
b11111111111101101101100110110000 L
b11111111111101101101100110101100 R
b11111111111101101101100110110000 S
b11111111111101101101100110101100 T
b11111111111110010010001111001010 V
1!!
#36
0!!
#37
b11111111111100100100010110000000 =
b11111111111101101101100110110000 >
b11111111111100100100010110000000 ?
b11111111111101001000111110010110 A
b11111111111101101101100110110100 C
b11111111111101101101100110110000 D
b11111111111110010010001111001010 E
b11111111111101001000111110011010 I
b11111111111101001000111110011110 J
b11111111111101001000111110011010 K
b11111111111101001000111110010110 L
b11111111111101101101100110110000 R
b11111111111101101101100110110100 S
b11111111111101101101100110110000 T
b11111111111101101101100110110000 V
1!!
#38
0!!
#39
b11111111111100100100010110000100 =
b11111111111101001000111110010110 >
b11111111111100100100010110000100 ?
b11111111111101001000111110011010 A
b11111111111101001000111110011010 C
b11111111111101101101100110110100 D
b11111111111101101101100110110000 E
b11111111111100100100010110000000 I
b11111111111100100100010110000100 J
b11111111111100100100010110000000 K
b11111111111101001000111110011010 L
b11111111111101001000111110010110 R
b11111111111101001000111110011010 S
b11111111111101001000111110010110 T
b11111111111101101101100110110100 V
1!!
#40
0!!
#41
b11111111111011111111101101101010 =
b11111111111101001000111110011010 >
b11111111111011111111101101101010 ?
b11111111111100100100010110000000 A
b11111111111101001000111110011110 C
b11111111111101001000111110011010 D
b11111111111101101101100110110100 E
b11111111111100100100010110000100 I
b11111111111100100100010110001000 J
b11111111111100100100010110000100 K
b11111111111100100100010110000000 L
b11111111111101001000111110011010 R
b11111111111101001000111110011110 S
b11111111111101001000111110011010 T
b11111111111101001000111110011010 V
1!!
#42
0!!
#43
b11111111111011111111101101101110 =
b11111111111100100100010110000000 >
b11111111111011111111101101101110 ?
b11111111111100100100010110000100 A
b11111111111100100100010110000100 C
b11111111111101001000111110011110 D
b11111111111101001000111110011010 E
b11111111111011111111101101101010 I
b11111111111011111111101101101110 J
b11111111111011111111101101101010 K
b11111111111100100100010110000100 L
b11111111111100100100010110000000 R
b11111111111100100100010110000100 S
b11111111111100100100010110000000 T
b11111111111101001000111110011110 V
1!!
#44
0!!
#45
b11111111111011011011000101010100 =
b11111111111100100100010110000100 >
b11111111111011011011000101010100 ?
b11111111111011111111101101101010 A
b11111111111100100100010110001000 C
b11111111111100100100010110000100 D
b11111111111101001000111110011110 E
b11111111111011111111101101101110 I
b11111111111011111111101101110010 J
b11111111111011111111101101101110 K
b11111111111011111111101101101010 L
b11111111111100100100010110000100 R
b11111111111100100100010110001000 S
b11111111111100100100010110000100 T
b11111111111100100100010110000100 V
1!!
#46
0!!
#47
b11111111111011011011000101011000 =
b11111111111011111111101101101010 >
b11111111111011011011000101011000 ?
b11111111111011111111101101101110 A
b11111111111011111111101101101110 C
b11111111111100100100010110001000 D
b11111111111100100100010110000100 E
b11111111111011011011000101010100 I
b11111111111011011011000101011000 J
b11111111111011011011000101010100 K
b11111111111011111111101101101110 L
b11111111111011111111101101101010 R
b11111111111011111111101101101110 S
b11111111111011111111101101101010 T
b11111111111100100100010110001000 V
1!!
#48
0!!
#49
b11111111111010110110011100111110 =
b11111111111011111111101101101110 >
b11111111111010110110011100111110 ?
b11111111111011011011000101010100 A
b11111111111011111111101101110010 C
b11111111111011111111101101101110 D
b11111111111100100100010110001000 E
b11111111111011011011000101011000 I
b11111111111011011011000101011100 J
b11111111111011011011000101011000 K
b11111111111011011011000101010100 L
b11111111111011111111101101101110 R
b11111111111011111111101101110010 S
b11111111111011111111101101101110 T
b11111111111011111111101101101110 V
1!!
#50
0!!
#51
b11111111111010110110011101000010 =
b11111111111011011011000101010100 >
b11111111111010110110011101000010 ?
b11111111111011011011000101011000 A
b11111111111011011011000101011000 C
b11111111111011111111101101110010 D
b11111111111011111111101101101110 E
b11111111111010110110011100111110 I
b11111111111010110110011101000010 J
b11111111111010110110011100111110 K
b11111111111011011011000101011000 L
b11111111111011011011000101010100 R
b11111111111011011011000101011000 S
b11111111111011011011000101010100 T
b11111111111011111111101101110010 V
1!!
#52
0!!
#53
b11111111111010010001110100101000 =
b11111111111011011011000101011000 >
b11111111111010010001110100101000 ?
b11111111111010110110011100111110 A
b11111111111011011011000101011100 C
b11111111111011011011000101011000 D
b11111111111011111111101101110010 E
b11111111111010110110011101000010 I
b11111111111010110110011101000110 J
b11111111111010110110011101000010 K
b11111111111010110110011100111110 L
b11111111111011011011000101011000 R
b11111111111011011011000101011100 S
b11111111111011011011000101011000 T
b11111111111011011011000101011000 V
1!!
#54
0!!
#55
b11111111111010010001110100101100 =
b11111111111010110110011100111110 >
b11111111111010010001110100101100 ?
b11111111111010110110011101000010 A
b11111111111010110110011101000010 C
b11111111111011011011000101011100 D
b11111111111011011011000101011000 E
b11111111111010010001110100101000 I
b11111111111010010001110100101100 J
b11111111111010010001110100101000 K
b11111111111010110110011101000010 L
b11111111111010110110011100111110 R
b11111111111010110110011101000010 S
b11111111111010110110011100111110 T
b11111111111011011011000101011100 V
1!!
#56
0!!
#57
b11111111111001101101001100010010 =
b11111111111010110110011101000010 >
b11111111111001101101001100010010 ?
b11111111111010010001110100101000 A
b11111111111010110110011101000110 C
b11111111111010110110011101000010 D
b11111111111011011011000101011100 E
b11111111111010010001110100101100 I
b11111111111010010001110100110000 J
b11111111111010010001110100101100 K
b11111111111010010001110100101000 L
b11111111111010110110011101000010 R
b11111111111010110110011101000110 S
b11111111111010110110011101000010 T
b11111111111010110110011101000010 V
1!!
#58
0!!
#59
b11111111111001101101001100010110 =
b11111111111010010001110100101000 >
b11111111111001101101001100010110 ?
b11111111111010010001110100101100 A
b11111111111010010001110100101100 C
b11111111111010110110011101000110 D
b11111111111010110110011101000010 E
b11111111111001101101001100010010 I
b11111111111001101101001100010110 J
b11111111111001101101001100010010 K
b11111111111010010001110100101100 L
b11111111111010010001110100101000 R
b11111111111010010001110100101100 S
b11111111111010010001110100101000 T
b11111111111010110110011101000110 V
1!!
#60
0!!
#61
b11111111111001001000100011111100 =
b11111111111010010001110100101100 >
b11111111111001001000100011111100 ?
b11111111111001101101001100010010 A
b11111111111010010001110100110000 C
b11111111111010010001110100101100 D
b11111111111010110110011101000110 E
b11111111111001101101001100010110 I
b11111111111001101101001100011010 J
b11111111111001101101001100010110 K
b11111111111001101101001100010010 L
b11111111111010010001110100101100 R
b11111111111010010001110100110000 S
b11111111111010010001110100101100 T
b11111111111010010001110100101100 V
1!!
#62
0!!
#63
b11111111111001001000100100000000 =
b11111111111001101101001100010010 >
b11111111111001001000100100000000 ?
b11111111111001101101001100010110 A
b11111111111001101101001100010110 C
b11111111111010010001110100110000 D
b11111111111010010001110100101100 E
b11111111111001001000100011111100 I
b11111111111001001000100100000000 J
b11111111111001001000100011111100 K
b11111111111001101101001100010110 L
b11111111111001101101001100010010 R
b11111111111001101101001100010110 S
b11111111111001101101001100010010 T
b11111111111010010001110100110000 V
1!!
#64
0!!
#65
b11111111111000100011111011100110 =
b11111111111001101101001100010110 >
b11111111111000100011111011100110 ?
b11111111111001001000100011111100 A
b11111111111001101101001100011010 C
b11111111111001101101001100010110 D
b11111111111010010001110100110000 E
b11111111111001001000100100000000 I
b11111111111001001000100100000100 J
b11111111111001001000100100000000 K
b11111111111001001000100011111100 L
b11111111111001101101001100010110 R
b11111111111001101101001100011010 S
b11111111111001101101001100010110 T
b11111111111001101101001100010110 V
1!!
#66
0!!
#67
b11111111111000100011111011101010 =
b11111111111001001000100011111100 >
b11111111111000100011111011101010 ?
b11111111111001001000100100000000 A
b11111111111001001000100100000000 C
b11111111111001101101001100011010 D
b11111111111001101101001100010110 E
b11111111111000100011111011100110 I
b11111111111000100011111011101010 J
b11111111111000100011111011100110 K
b11111111111001001000100100000000 L
b11111111111001001000100011111100 R
b11111111111001001000100100000000 S
b11111111111001001000100011111100 T
b11111111111001101101001100011010 V
1!!
#68
0!!
